<?xml version="1.0" encoding="utf-8"?>
<!-- Generator: Adobe Illustrator 19.0.0, SVG Export Plug-In . SVG Version: 6.00 Build 0)  -->
<svg version="1.1" id="Layer_1" xmlns="http://www.w3.org/2000/svg" xmlns:xlink="http://www.w3.org/1999/xlink" x="0px" y="0px"
	 viewBox="0 0 100 100" style="enable-background:new 0 0 100 100;" xml:space="preserve">
<style type="text/css">
	.st0{fill:url(#XMLID_3_);}
</style>
<g id="XMLID_1_">
	
		<linearGradient id="XMLID_3_" gradientUnits="userSpaceOnUse" x1="50" y1="100" x2="50" y2="0" gradientTransform="matrix(1 0 0 -1 0 100)">
		<stop  offset="0" style="stop-color:#FFFFFF"/>
		<stop  offset="0.1784" style="stop-color:#D7F6ED"/>
		<stop  offset="0.5812" style="stop-color:#70DFC1"/>
		<stop  offset="1" style="stop-color:#00C690"/>
	</linearGradient>
	<path id="XMLID_12_" class="st0" d="M50,7.8c23.3,0,42.2,19,42.2,42.2S73.3,92.2,50,92.2S7.8,73.3,7.8,50S26.7,7.8,50,7.8 M50,0
		C22.4,0,0,22.4,0,50s22.4,50,50,50s50-22.4,50-50S77.6,0,50,0L50,0z"/>
</g>
</svg>
